<?xml version="1.0" encoding="UTF-8"?>
<svg width="750px" height="500px" viewBox="0 0 750 500" version="1.1" xmlns="http://www.w3.org/2000/svg" xmlns:xlink="http://www.w3.org/1999/xlink">
    <!-- Generator: Sketch 53.2 (72643) - https://sketchapp.com -->
    <title>Artboard Copy</title>
    <desc>Created with Sketch.</desc>
    <g id="Artboard-Copy" stroke="none" stroke-width="1" fill="none" fill-rule="evenodd">
        <rect fill="#2B2B2B" x="0" y="0" width="750" height="500"></rect>
        <text id="S" font-family="DINCondensed-Bold, DIN Condensed" font-size="200" font-style="condensed" font-weight="bold" fill="#FC763D">
            <tspan x="373.4" y="312">S</tspan>
        </text>
        <text id="ecops-pace" font-family="DINCondensed-Bold, DIN Condensed" font-size="100" font-style="condensed" font-weight="bold" line-spacing="80" fill="#FC763D">
            <tspan x="455" y="223">ecops</tspan>
            <tspan x="455" y="303">pace</tspan>
        </text>
        <g id="np_planet_955317_000000" transform="translate(109.000000, 130.000000)" fill="#FC763D" fill-rule="nonzero">
            <path d="M35,67.4951435 C35,80.1682855 16,80.1682855 16,67.4951435 C16,54.8349522 35,54.8349522 35,67.4951435" id="Path"></path>
            <path d="M151,99.5 C151,112.166667 132,112.166667 132,99.5 C132,86.8333333 151,86.8333333 151,99.5" id="Path"></path>
            <path d="M236,164.5 C236,177.166667 217,177.166667 217,164.5 C217,151.833333 236,151.833333 236,164.5" id="Path"></path>
            <path d="M100,9.49514347 C100,22.1682855 81,22.1682855 81,9.49514347 C81,-3.16504782 100,-3.16504782 100,9.49514347" id="Path"></path>
            <path d="M232.72258,75.9839498 C227.353324,62.4149967 205.875959,57.4989649 173.007849,62.1765223 C176.9818,65.7278566 180.583533,69.6631922 183.759971,73.9435185 C205.529599,71.9823977 218.501417,75.2951219 220.641498,80.7279951 C222.448999,85.3394038 217.784065,93.4885778 207.271264,103.214803 C205.742858,104.606164 204.134735,106.023984 202.36711,107.494791 C201.277302,108.4091 200.121011,109.363168 198.964755,110.303971 L196.851586,111.93384 L192.917784,114.650276 L189.821096,116.823412 C188.744557,101.412473 182.617631,86.7966754 172.397297,75.2006481 C171.373937,73.9815455 170.244253,72.8552206 168.994942,71.8084098 C167.439964,70.1652774 165.791931,68.6149227 164.064249,67.1573119 C162.868117,66.1369944 161.618807,65.1961911 160.316215,64.2686174 L158.54859,63.0892719 C156.661337,61.8569395 154.707671,60.717351 152.700622,59.6970336 C149.657114,58.0539012 146.507316,56.6228176 143.2778,55.4170465 C141.071577,54.6352374 138.825479,53.9196786 136.473091,53.3499183 C134.120668,52.7668604 131.874468,52.3031075 129.668381,51.9188008 L129.668381,51.9320543 C123.461805,50.9249666 117.162005,50.739479 110.915621,51.3489964 L109.147996,51.5875114 C108.297407,51.6537686 107.460122,51.7862762 106.622802,51.9585544 C105.506421,52.1308157 104.376704,52.3295975 103.220447,52.6078628 C102.011012,52.8861315 100.801577,53.177657 99.592176,53.4824157 L97.4790074,54.0654736 C95.1930332,54.8075258 92.9603399,55.629092 90.6742977,56.5434019 C89.757261,56.914445 88.8402243,57.3252111 87.9497599,57.7625045 C87.0592956,58.199798 86.5941257,58.4118129 85.9030393,58.782822 C85.2252222,59.153865 84.4012059,59.5248741 83.6968163,59.9356402 L82.9126756,60.4126568 C81.9557633,60.9162006 81.0387266,61.4992246 80.1216899,62.1087759 C79.0053092,62.7845776 77.9420733,63.5001364 76.8921066,64.2819116 C75.8421739,65.0637208 74.778938,65.8455299 73.7555437,66.6538325 C72.7321834,67.462135 71.7486987,68.3101946 70.7651799,69.1980112 L70.5658223,69.1980112 L67.9077326,71.7421899 C67.0172683,72.6300065 66.1666796,73.5443165 65.3160908,74.4851199 L65.0502819,74.7898921 C64.2395687,75.7042021 63.455428,76.6582691 62.6978597,77.5990725 C60.9701098,79.7457148 59.4018284,82.0116961 58.0063525,84.3835491 C57.5279134,85.1653582 57.0494402,85.9471674 56.6108426,86.7289765 C56.1722451,87.5107857 55.7602539,88.2263444 55.3482628,88.9683966 C54.4577985,90.6247587 53.6470853,92.3606349 52.9293926,94.056754 L51.9060323,96.6009327 C51.5338827,97.5814931 51.1617672,98.6018106 50.816224,99.5824049 C50.1649793,101.62304 49.5536441,103.650377 49.075171,105.757296 L49.0884606,105.757296 C48.9289752,106.340354 48.7827794,106.923378 48.6897386,107.519666 C48.663156,107.850938 48.663156,108.182204 48.6897386,108.51349 C48.6498664,108.805012 48.6498664,109.096548 48.6897386,109.388043 C48.6897386,110.302353 48.3441954,111.216663 48.251141,112.130973 C48.1448174,113.045283 47.985332,114.025843 47.8789914,114.97991 C47.7726508,115.933977 47.6796339,117.21933 47.6397651,118.372148 C47.5998929,119.524967 47.6397651,120.81032 47.6397651,122.029321 L47.6397651,123.685683 L47.6397651,125.68656 L47.6264755,125.713064 C47.7195061,127.912727 47.9454462,130.112458 48.2777202,132.285526 C48.3441716,132.934834 48.4504952,133.584108 48.5834014,134.220153 C48.5834014,134.935712 48.8226278,135.677764 48.9953925,136.393289 C49.1681675,137.108848 49.4339901,138.500174 49.7130853,139.547019 C49.9788943,140.59383 50.2181308,141.441889 50.497226,142.356199 C50.7630316,143.270509 50.9092172,143.707803 51.1484708,144.396834 C51.3876971,145.072636 51.4541519,145.311144 51.5870683,145.748438 C51.7199711,146.185731 52.0256659,146.96754 52.3047611,147.550564 L52.2914681,147.550564 C52.9825544,149.432205 53.7799983,151.260994 54.6704626,153.049722 C55.0824538,153.937538 55.5210514,154.812091 55.9994905,155.660151 L56.3051717,156.243209 C56.7836108,157.091268 57.262084,157.979085 57.8070051,158.787387 L57.8070051,158.986149 C58.2854443,159.767958 58.7639175,160.51001 59.268963,161.265326 C59.7740086,162.007378 60.8372445,163.610753 61.6878332,164.657564 L63.6946782,167.201743 L59.8802981,167.943795 C57.328532,168.314804 54.8431117,168.619597 52.3978393,168.858105 L48.4106196,169.229148 C25.3783782,171.031275 15.1713136,166.578962 13.468435,162.245886 C11.7672575,157.899751 17.282815,145.828131 38.0957003,130.324246 L38.1089899,130.324246 C37.8298913,127.607809 37.6969988,124.878007 37.6969988,122.148273 C37.6969988,119.604094 37.6969988,117.099605 38.0691483,114.581885 C8.84360037,134.087255 -4.32759585,152.91757 1.25566852,166.988575 C5.4422662,177.271127 18.0946033,182.492121 38.4434074,182.492121 C41.8457622,182.492121 45.4474951,182.492121 49.3016827,182.054828 C53.1426012,181.617534 57.9137234,181.246525 62.4327312,180.55746 C65.1173933,180.146694 67.8819427,179.669643 70.6728945,179.166099 L74.992184,178.31804 C75.2978651,178.583059 75.6035531,178.795056 75.9092207,179.033599 C76.8262574,179.749157 77.7831697,180.385202 78.7267788,181.034476 C79.6836911,181.683785 80.6273002,182.293302 81.6240881,182.863096 C82.6075728,183.446154 84.2423023,184.386958 85.5715003,185.062759 L87.4055737,186.016826 L88.2561624,186.427593 C88.9339795,186.772108 89.6250659,187.076901 90.3294894,187.341903 C91.1136302,187.712912 91.9243433,188.017704 92.708484,188.322463 C93.4926247,188.627235 94.7552046,189.104272 95.8051713,189.435524 C96.855104,189.78004 97.8784983,190.111326 98.9683066,190.416085 C100.058115,190.720853 100.775808,190.919628 101.719417,191.131643 C102.676329,191.330408 104.57685,191.807445 106.038706,192.045953 C106.929171,192.218218 107.779759,192.350726 108.65692,192.456719 L109.201842,192.456719 L112.125757,192.801235 C113.08267,192.801235 114.026279,192.867492 114.983191,193 L118.624731,193 L122.29281,193 C123.488942,193 124.671805,193 125.695165,192.734981 L126.000846,192.734981 L128.898156,192.390466 L130.971483,192.019423 C131.888519,192.019423 132.778984,191.71465 133.69602,191.515879 L135.569969,191.078585 L137.470491,190.575041 L137.48378,190.561791 C137.762879,190.535291 138.015398,190.469034 138.267921,190.363027 L140.992459,189.514967 L143.982823,188.428399 L146.268797,187.540583 L146.468154,187.540583 C147.90354,186.931031 149.325588,186.281757 150.68129,185.579462 L150.69458,185.579462 C152.32931,184.784389 153.937433,183.896606 155.492581,182.929276 C156.409618,182.385975 157.300082,181.816214 158.177243,181.233156 C159.067707,180.650099 159.772097,180.146589 160.529665,179.576794 C161.27393,178.993736 161.818852,178.662484 162.430187,178.145677 C165.673039,175.641255 168.67657,172.858534 171.414445,169.810947 C172.15871,169.029138 172.876403,168.181079 173.55422,167.372776 C174.232037,166.564474 174.989605,165.610407 175.667389,164.696097 C176.345206,163.781787 176.996416,162.89397 177.607786,161.97966 L178.458374,160.694307 C179.441859,159.236696 180.332323,157.712835 181.182912,156.149386 C181.727833,155.168826 182.232845,154.148508 182.751194,153.128191 C183.256239,152.107873 183.708106,151.087556 184.146703,150.080468 L184.13341,150.067218 C186.512405,144.700697 188.213514,139.055674 189.170597,133.265123 L189.170597,132.960354 L192.572952,130.681177 C194.951946,129.157316 197.264459,127.593697 199.377661,126.030079 C223.938581,108.909791 238.545571,90.9034514 232.723461,75.9809952 L232.72258,75.9839498 Z M169.847062,150.070434 C168.424979,152.601349 166.816856,155.039385 165.049061,157.358319 C163.852929,158.921937 162.603618,160.379514 161.274488,161.797402 C159.945461,163.228485 159.267643,163.904287 158.177801,164.884881 C157.659486,165.401655 157.114565,165.878705 156.543072,166.315999 C154.323579,168.184376 151.984597,169.907022 149.538984,171.470505 L147.572014,172.623323 C146.894197,173.034089 146.21638,173.405132 145.498687,173.736384 L145.485398,173.749635 C145.113248,173.961649 144.727829,174.147171 144.329142,174.319429 L143.13301,174.86273 C142.282421,175.273496 141.431832,175.604782 140.541368,175.975791 C139.650904,176.3468 138.188946,176.929858 136.966173,177.327394 L134.414407,178.109204 C133.563819,178.347722 132.71323,178.58622 131.862641,178.758512 L131.875931,178.758512 C131.264562,178.930773 130.639923,179.076534 130.001982,179.169278 C129.284289,179.169278 128.566596,179.434297 127.862207,179.540321 C127.144514,179.646328 125.655984,179.884837 124.459852,179.977614 L122.79855,179.977614 L122.785257,179.990868 C122.293515,180.017368 121.788469,180.017368 121.296727,179.990868 L118.612065,179.990868 L114.731339,179.990868 L113.309256,179.990868 L110.916993,179.778853 C108.444978,179.460831 105.9863,178.98378 103.567225,178.360999 L101.361002,177.711691 L98.6364648,176.797381 C96.6163165,176.055329 94.6492451,175.207269 92.7221513,174.253202 L97.586498,172.901599 C101.228038,171.881281 104.936265,170.768186 108.683959,169.50936 C116.578443,167.004939 124.605959,164.156069 132.500443,160.989076 C141.311862,157.596837 150.017127,153.72765 158.43013,149.699367 C161.832485,148.003248 165.434218,146.307129 168.836573,144.478373 L173.328702,142.106452 C173.089475,142.822011 172.823656,143.497813 172.544561,144.173615 C172.278752,144.849416 171.959764,145.525218 171.654097,146.174492 C171.20223,147.486339 170.564288,148.771658 169.846596,150.070139 L169.847062,150.070434 Z M175.867529,125.847817 L173.554982,127.172893 L170.631066,128.869013 L167.600861,130.525375 L166.511053,131.108399 C163.959287,132.499759 161.341175,133.891086 158.616569,135.242859 L153.885254,137.588286 C150.682243,139.151905 147.386076,140.675766 143.943913,142.199695 C140.501751,143.723556 137.139204,145.247418 133.391169,146.744616 L127.928689,148.984036 C115.595152,153.847149 102.995892,158.034528 90.196573,161.532604 C87.5783589,162.248162 84.9600086,162.923964 82.3684349,163.533482 C81.105855,163.838254 79.8831167,164.143033 78.6605486,164.381541 C71.9221847,158.060784 66.792114,150.216232 63.6956309,141.523622 L118.677686,141.523622 C122.266149,141.523622 125.176864,138.621664 125.176864,135.043768 C125.176864,131.465975 122.266252,128.563915 118.677686,128.563915 L60.6641327,128.563915 C60.4116133,126.417272 60.2919831,124.270698 60.2919831,122.11086 L60.2919831,119.43418 C60.2521109,118.930636 60.2521109,118.440356 60.2919831,117.936812 L60.2919831,116.240693 C60.2654005,116.161186 60.2654005,116.068432 60.2919831,115.975675 C60.2919831,115.061365 60.4913407,114.173548 60.6375262,113.325488 C60.6375262,112.517186 60.9033352,111.69562 61.0761238,110.913811 C61.2489022,110.132001 61.2754814,109.867 61.421667,109.323699 L98.8475707,109.323699 L98.8342811,109.323699 C102.236636,109.08518 104.868017,106.262747 104.868017,102.857414 C104.868017,99.4651759 102.2365,96.6428337 98.8342811,96.4043593 L66.3788776,96.4043593 C66.551656,96.0333163 66.7510272,95.6888006 66.9237988,95.3177915 L67.7743875,93.7541731 C68.0800687,93.2108723 68.4256322,92.6411119 68.7578722,92.1243044 C69.1034154,91.6207606 69.5420129,90.8389514 69.9806105,90.189677 C70.4192081,89.5403687 71.3761204,88.1225487 72.1602271,87.1419544 C72.9443338,86.1613601 73.0108158,86.0288932 73.4494134,85.4855923 L73.9278525,84.9422914 C74.4062917,84.3327401 74.9512128,83.7497161 75.4562584,83.1799219 C75.9613039,82.5968639 76.7454447,81.7885614 77.3966554,81.139287 C80.0547451,78.4758372 82.9387513,76.0641593 86.0488438,73.9440104 C87.6171253,72.8971995 89.2119792,71.9431325 90.8468447,71.0287886 C92.4815742,70.1144786 94.2491996,69.3326695 95.950377,68.5906174 C96.6281942,68.2858451 97.3458869,68.0075594 98.023704,67.7823148 C98.7015212,67.5437964 100.203321,66.9740123 101.426059,66.6294966 L104.177169,65.8476874 L106.795383,65.2381361 L106.795383,65.224886 C108.124445,64.9466139 109.466776,64.7213422 110.809141,64.5755777 C111.407207,64.4563202 112.005273,64.3768163 112.616642,64.3503127 C113.533679,64.3503127 114.450716,64.1515479 115.407628,64.1117943 C116.36454,64.072044 117.653727,64.1117943 118.809983,64.1117943 C134.226733,64.1648014 149.005882,70.2866856 159.917235,81.1523641 C170.828587,92.0180425 176.982086,106.740017 177.062041,122.110249 L177.062041,125.157972 L175.867529,125.847817 Z" id="Shape"></path>
        </g>
    </g>
</svg>